The Practice R Tutorials - 3 Data manipulation with dplyr
…
In Chapter 4 we used the dplyr package to manipulate data (Wickham et al. 2022). In addition, we will learn how to systemically manipulate categorical variables with the forcats package (Wickham 2022) in Chapter 5. Both packages help you to handle many common steps to manipulate data. This tutorial gives a dplyr recap and asks you to apply the introduced functions.

As the next output shows, we use the gss2016 again to select variables, create a filter, generate new variables, and summarize the data. Ask R to provide a description of the data (?data) if you are not familiar with the gss2016 data yet.

# The setup of tutorial 4
library(dplyr)
library(PracticeR)
head(gss2016)[1:9]

#> # A tibble: 6 × 9
#>    year    id ballot     age childs sibs  degree race  sex  
#>   <dbl> <dbl> <labell> <dbl>  <dbl> <lab> <fct>  <fct> <fct>
#> 1  2016     1 1           47      3 2     Bache… White Male 
#> 2  2016     2 2           61      0 3     High … White Male 
#> 3  2016     3 3           72      2 3     Bache… White Male 
#> 4  2016     4 1           43      4 3     High … White Fema…
#> 5  2016     5 3           55      2 2     Gradu… White Fema…
#> # ℹ 1 more row

3.1 Select

Especially in case of large and cluttered data, we use select() to specify which variables we work with. For example, pick only one variable such as school degree from the gss2016 data.

# Select a variable
select(gss2016, degree)

#> # A tibble: 2,867 × 1
#>   degree     
#>   <fct>      
#> 1 Bachelor   
#> 2 High School
#> 3 Bachelor   
#> 4 High School
#> 5 Graduate   
#> # ℹ 2,862 more rows

Select comes with handy functions and applies the same logic as base R. For example, select several columns by providing a start (e.g., id) and endpoint (e.g., degree).

# Select all variables from x to y
select(gss2016, id:degree) |> head()

#> # A tibble: 6 × 6
#>      id ballot       age childs sibs       degree     
#>   <dbl> <labelled> <dbl>  <dbl> <labelled> <fct>      
#> 1     1 1             47      3 2          Bachelor   
#> 2     2 2             61      0 3          High School
#> 3     3 3             72      2 3          Bachelor   
#> 4     4 1             43      4 3          High School
#> 5     5 3             55      2 2          Graduate   
#> # ℹ 1 more row

Maybe we need all columns except the variables shown in the last output. Ask for the opposite and insert parentheses and a minus signs to turn the selection around.

# Turn around the selection
select(gss2016, -(id:degree)) |> head()

#> # A tibble: 6 × 27
#>    year race  sex    region     income16 relig marital padeg
#>   <dbl> <fct> <fct>  <fct>      <fct>    <fct> <fct>   <fct>
#> 1  2016 White Male   New Engla… $170000… None  Married Grad…
#> 2  2016 White Male   New Engla… $50000 … None  Never … Lt H…
#> 3  2016 White Male   New Engla… $75000 … Cath… Married High…
#> 4  2016 White Female New Engla… $170000… Cath… Married <NA> 
#> 5  2016 White Female New Engla… $170000… None  Married Bach…
#> # ℹ 1 more row
#> # ℹ 19 more variables: madeg <fct>, partyid <fct>,
#> #   polviews <fct>, happy <fct>, partners <fct>,
#> #   grass <fct>, zodiac <fct>, pres12 <labelled>,
#> #   wtssall <dbl>, income_rc <fct>, agegrp <fct>,
#> #   ageq <fct>, siblings <fct>, kids <fct>, religion <fct>,
#> #   bigregion <fct>, partners_rc <fct>, obama <dbl>, …
…
#> # A tibble: 3 × 3
#>      x1    x2    x3
#>   <int> <int> <int>
#> 1     1     1     1
#> 2     2     2     2
#> 3     3     3     3

The package offers more helpers to select variables than I can possibly outline. For example, contains() checks if a variable includes a certain word; matches() let us specify search patterns (regular expression, see Chapter 10); and we can also include other functions to select variables. For example, the is.numeric function checks if an input is numeric and we can combine it with where() to select columns only where the content is numeric.

# Insert a function to select variables
gss2016 |> select(where(is.numeric))

#> # A tibble: 2,867 × 10
#>    year    id ballot   age childs sibs  pres12 wtssall obama
#>   <dbl> <dbl> <labe> <dbl>  <dbl> <lab> <labe>   <dbl> <dbl>
#> 1  2016     1 1         47      3 2     3        0.957     0
#> 2  2016     2 2         61      0 3     1        0.478     1
#> 3  2016     3 3         72      2 3     2        0.957     0
#> 4  2016     4 1         43      4 3     2        1.91      0
#> 5  2016     5 3         55      2 2     1        1.44      1
#> # ℹ 2,862 more rows
#> # ℹ 1 more variable: income <dbl>
Next, we filter data but since all R outputs are large due to the gss2016 data, let us first create a smaller subset to reduce the size of the output and the length of this document.

# Select a smaller subset for the rest of this tutorial
gss2016 <- select(PracticeR::gss2016, year:sex, income)

3.2 Filter

Use filter() to subset the data. The dplyr filters the data and returns a new data frame depending on the specified conditions. Use one or several relational or logical operators to select observations. For example, suppose you want to analyze persons who have a bachelor’s degree only.

# Apply a filter
gss2016 |>
  filter(degree == "Bachelor") |>
  head()

#> # A tibble: 6 × 10
#>    year    id ballot     age childs sibs  degree race  sex  
#>   <dbl> <dbl> <labell> <dbl>  <dbl> <lab> <fct>  <fct> <fct>
#> 1  2016     1 1           47      3 2     Bache… White Male 
#> 2  2016     3 3           72      2 3     Bache… White Male 
#> 3  2016    37 2           59      2 2     Bache… White Male 
#> 4  2016    38 1           43      2 6     Bache… White Fema…
#> 5  2016    39 3           58      0 1     Bache… White Fema…
#> # ℹ 1 more row
#> # ℹ 1 more variable: income <dbl>

Can you adjust the code so that two conditions have to be fulfilled simultaneously. For example, keep only observations from adults (18 years and older) with a bachelor’s degree.

# Combine several conditions
gss2016 |>
  filter(degree == "Bachelor" & age > 17) |>
  head()

#> # A tibble: 6 × 10
#>    year    id ballot     age childs sibs  degree race  sex  
#>   <dbl> <dbl> <labell> <dbl>  <dbl> <lab> <fct>  <fct> <fct>
#> 1  2016     1 1           47      3 2     Bache… White Male 
#> 2  2016     3 3           72      2 3     Bache… White Male 
#> 3  2016    37 2           59      2 2     Bache… White Male 
#> 4  2016    38 1           43      2 6     Bache… White Fema…
#> 5  2016    39 3           58      0 1     Bache… White Fema…
#> # ℹ 1 more row
#> # ℹ 1 more variable: income <dbl>

As outlined, keep your base R skills in mind when selecting or filtering data. For example, keep all degrees but exclude persons who have a Bachelor.

# All degrees, but not! Bachelors
gss2016 |>
  filter(degree != "Bachelor") |>
  head()

#> # A tibble: 6 × 10
#>    year    id ballot     age childs sibs  degree race  sex  
#>   <dbl> <dbl> <labell> <dbl>  <dbl> <lab> <fct>  <fct> <fct>
#> 1  2016     2 2           61      0 3     High … White Male 
#> 2  2016     4 1           43      4 3     High … White Fema…
#> 3  2016     5 3           55      2 2     Gradu… White Fema…
#> 4  2016     6 2           53      2 2     Junio… White Fema…
#> 5  2016     7 1           50      2 2     High … White Male 
#> # ℹ 1 more row
#> # ℹ 1 more variable: income <dbl>
…
3.3 Mutate

In Chapter 4 I outline several ways to generate new variables based on observed ones. For example, raw data often contains a person’s year of birth but not their age. With mutate() we can extend the data frame and estimate such a variable. Unfortunately, the gss2016 has an age variable, but the variable does only reveal their age when the survey was conducted. To recap how mutate() works, recreate their birth year and a recent age variable, say for the year 2023.

# Create birth_year and a recent (year: 2023) age variable
gss2016 |>
  select(id, year, age) |>
  mutate(
    birth_year = year - age,
    age_2023 = 2023 - birth_year
  ) |>
  head()

#> # A tibble: 6 × 5
#>      id  year   age birth_year age_2023
#>   <dbl> <dbl> <dbl>      <dbl>    <dbl>
#> 1     1  2016    47       1969       54
#> 2     2  2016    61       1955       68
#> 3     3  2016    72       1944       79
#> 4     4  2016    43       1973       50
#> 5     5  2016    55       1961       62
#> # ℹ 1 more row

Keep in mind that you can use relational and logical operators, as well other functions (e.g., log, rankings, etc.) to generate new variables. For example, generate a logical variable that indicates whether a person was an adult (older than 17) in the year 2016. The if_else() function helps you with this job.

# In theory: if_else(condition, true, false, missing = NULL)
gss2016 |>
  select(id, year, age) |>
  mutate(adult = if_else(age > 17, TRUE, FALSE)) |>
  head()

#> # A tibble: 6 × 4
#>      id  year   age adult
#>   <dbl> <dbl> <dbl> <lgl>
#> 1     1  2016    47 TRUE 
#> 2     2  2016    61 TRUE 
#> 3     3  2016    72 TRUE 
#> 4     4  2016    43 TRUE 
#> 5     5  2016    55 TRUE 
#> # ℹ 1 more row
…
#> # A tibble: 2 × 4
#>   sex    median_age sd_age distinct_degree
#>   <fct>       <dbl>  <dbl>           <int>
#> 1 Male           48   17.4               6
#> 2 Female         50   17.9               6

In the last examples we grouped the data and then collapsed it. The counterpart to group is ungroup() which we may add as a last step to disperse the data again. For example, we can estimate how old men or women are on average and add this information to the original data frame. Use mutate() instead of summarise() to see the logic behind ungroup.

# Mutate ungroups the data again
gss2016 |>
  select(id, sex, age) |>
  group_by(sex) |>
  mutate(count = round(mean(age), 2))

#> # A tibble: 2,857 × 4
#> # Groups:   sex [2]
#>      id sex      age count
#>   <dbl> <fct>  <dbl> <dbl>
#> 1     1 Male      47  48.3
#> 2     2 Male      61  48.3
#> 3     3 Male      72  48.3
#> 4     4 Female    43  49.8
#> 5     5 Female    55  49.8
#> # ℹ 2,852 more rows

3.5 Arrange

Last but not least, keep the arrange() function in mind. It is easy to apply and I don’t believe there is much to practice. However, it gives us the chance to repeat how transmute() and the between() function works.

Consider the steps to build a restricted age sample to examine adults only. Use mutate to create a logical variable (age_filter) that indicates if a person is between 18 and 65. Furthermore, explore the difference between mutate() and transmute() if you can’t remember it.

# Create a restricted analysis sample
# between: x >= left & x <= right
gss2016 |>
  transmute(age,
    age_filter = between(age, 18, 65)
  )

#> # A tibble: 2,857 × 2
#>     age age_filter
#>   <dbl> <lgl>     
#> 1    47 TRUE      
#> 2    61 TRUE      
#> 3    72 FALSE     
#> 4    43 TRUE      
#> 5    55 TRUE      
#> # ℹ 2,852 more rows

Next, we need a filter() to restrict the sample, but how can we know that code worked? We can inspect the entire data frame with View, but we can also use arrange() to inspect if the filter was correctly applied. Sort in ascending and descending (desc) order.

# Filter and arrange the data
gss2016 |>
  transmute(age,
    age_filter = between(age, 18, 65)
  ) |>
  filter(age_filter == "TRUE") |>
  arrange(desc(age)) |>
  head()

#> # A tibble: 6 × 2
#>     age age_filter
#>   <dbl> <lgl>     
#> 1    65 TRUE      
#> 2    65 TRUE      
#> 3    65 TRUE      
#> 4    65 TRUE      
#> 5    65 TRUE      
#> # ℹ 1 more row
…
