Practice R: The Tutorials - 1 Base R
…
#> [1] 1 2 3

What is the typical reason why a function from an R package cannot be found? I started to introduce the dplyr package in Chapter 2 (Wickham et al. 2022). Suppose we want to use the select function from the package. To use anything from an R package, we need to load the package with the library() function each time we start (over). Otherwise, R cannot find the function.

# Load the package to use a function from a package
library(palmerpenguins)
select(penguins, species)

#> Error in select(penguins, species): could not find function "select"

# Solution:
dplyr::select(penguins, species)

#> # A tibble: 344 × 1
#>    species
#>    <fct>  
#>  1 Adelie 
#>  2 Adelie 
#>  3 Adelie 
#>  4 Adelie 
#>  5 Adelie 
#>  6 Adelie 
#>  7 Adelie 
#>  8 Adelie 
#>  9 Adelie 
#> 10 Adelie 
#> # ℹ 334 more rows
…
# Mistakes happen all the time ...
library(dplyr)
filter(penguins, species = "Adelie")

#> Error in `filter()`:
#> ! We detected a named input.
#> ℹ This usually means that you've used `=` instead of `==`.
#> ℹ Did you mean `species == "Adelie"`?

# Solution:
library(dplyr)
filter(penguins, species == "Adelie")

#> # A tibble: 152 × 8
#>    species island    bill_length_mm bill_depth_mm flipper_length_mm body_mass_g
#>    <fct>   <fct>              <dbl>         <dbl>             <int>       <int>
#>  1 Adelie  Torgersen           39.1          18.7               181        3750
#>  2 Adelie  Torgersen           39.5          17.4               186        3800
#>  3 Adelie  Torgersen           40.3          18                 195        3250
#>  4 Adelie  Torgersen           NA            NA                  NA          NA
#>  5 Adelie  Torgersen           36.7          19.3               193        3450
#>  6 Adelie  Torgersen           39.3          20.6               190        3650
#>  7 Adelie  Torgersen           38.9          17.8               181        3625
#>  8 Adelie  Torgersen           39.2          19.6               195        4675
#>  9 Adelie  Torgersen           34.1          18.1               193        3475
#> 10 Adelie  Torgersen           42            20.2               190        4250
#> # ℹ 142 more rows
#> # ℹ 2 more variables: sex <fct>, year <int>
…
